<?xml version='1.0' encoding='UTF-8'?>
<!-- Created with Inkscape (http://www.inkscape.org/) and export_objects.py -->
<svg xmlns:cc="http://creativecommons.org/ns#" xmlns:dc="http://purl.org/dc/elements/1.1/" xmlns:inkscape="http://www.inkscape.org/namespaces/inkscape" xmlns:rdf="http://www.w3.org/1999/02/22-rdf-syntax-ns#" xmlns:sodipodi="http://sodipodi.sourceforge.net/DTD/sodipodi-0.dtd" xmlns:xlink="http://www.w3.org/1999/xlink" xmlns="http://www.w3.org/2000/svg" version="1.1" id="svg1" width="16" height="16" viewBox="0 0 16 16">
<sodipodi:namedview 
    objecttolerance="10" 
    gridtolerance="10" 
    guidetolerance="10" 
    id="namedview" 
    showgrid="true" 
    inkscape:zoom="27.166187"
    inkscape:cx="7.4837792"
    inkscape:cy="8.9906751"
    inkscape:window-x="0" 
    inkscape:window-y="27"> 
    <inkscape:grid type="xygrid" id="grid"/>
  </sodipodi:namedview>
  <metadata
     id="metadata1906">
    <rdf:RDF>
      <cc:Work
         rdf:about="">
        <dc:format>image/svg+xml</dc:format>
        <dc:type
           rdf:resource="http://purl.org/dc/dcmitype/StillImage" />
        <cc:license
           rdf:resource="http://creativecommons.org/publicdomain/zero/1.0/" />
        <dc:title>LiveEffect Icons proposal</dc:title>
        <dc:date>13 Jan 2019</dc:date>
        <dc:creator>
          <cc:Agent>
            <dc:title>Ramón Miranda</dc:title>
          </cc:Agent>
        </dc:creator>
        <dc:rights>
          <cc:Agent>
            <dc:title>see the license tab</dc:title>
          </cc:Agent>
        </dc:rights>
        <dc:subject>
          <rdf:Bag>
            <rdf:li>icon ui</rdf:li>
          </rdf:Bag>
        </dc:subject>
        <dc:description>This is a contribution with Inkscape Project from
Ramon Miranda www.ramonmiranda.com (design and SVG file)
Jabiertxo (SVG stuff to integrate them in UI)</dc:description>
        <dc:publisher>
          <cc:Agent>
            <dc:title></dc:title>
          </cc:Agent>
        </dc:publisher>
        <dc:identifier></dc:identifier>
        <dc:source />
        <dc:relation />
        <dc:language>-</dc:language>
        <dc:coverage />
        <dc:contributor>
          <cc:Agent>
            <dc:title>Ramon Miranda
Jabier Arraiza</dc:title>
          </cc:Agent>
        </dc:contributor>
      </cc:Work>
      <cc:License
         rdf:about="http://creativecommons.org/publicdomain/zero/1.0/">
        <cc:permits
           rdf:resource="http://creativecommons.org/ns#Reproduction" />
        <cc:permits
           rdf:resource="http://creativecommons.org/ns#Distribution" />
        <cc:permits
           rdf:resource="http://creativecommons.org/ns#DerivativeWorks" />
      </cc:License>
    </rdf:RDF>
  </metadata>
  <g inkscape:groupmode="layer"
     id="layercompo"
     inkscape:label="bool-op">
        <path 
            id="rect22048" 
            d="M 0,0 H 16 V 16 H 0 Z" 
            style="opacity:0;fill:none" />
        <path inkscape:connector-curvature="0" d="M 10.776205,2.9615883 A 5.0379708,5.0379708 0 0 0 7.9999998,3.7987587 5.0379708,5.0379708 0 0 1 10.263232,8.0010259 5.0379708,5.0379708 0 0 1 8.0020518,12.201241 5.0379708,5.0379708 0 0 0 10.776205,13.038411 5.0379708,5.0379708 0 0 0 15.813591,8.0010259 5.0379708,5.0379708 0 0 0 10.776205,2.9615883 Z m -5.55241,0 A 5.0379708,5.0379708 0 0 0 0.18640928,8.0010259 5.0379708,5.0379708 0 0 0 5.223795,13.038411 5.0379708,5.0379708 0 0 0 8.0020518,12.201241 5.0379708,5.0379708 0 0 1 7.9322875,12.158151 5.0379708,5.0379708 0 0 1 7.5301174,11.854472 5.0379708,5.0379708 0 0 1 7.1628294,11.509755 5.0379708,5.0379708 0 0 1 6.8304235,11.132207 5.0379708,5.0379708 0 0 1 6.5370035,10.721829 5.0379708,5.0379708 0 0 1 6.2866731,10.284777 5.0379708,5.0379708 0 0 1 6.0814843,9.8251545 5.0379708,5.0379708 0 0 1 5.921437,9.3470646 5.0379708,5.0379708 0 0 1 5.810635,8.8566633 5.0379708,5.0379708 0 0 1 5.7511303,8.3560027 5.0379708,5.0379708 0 0 1 5.738819,8.0010259 5.0379708,5.0379708 0 0 1 5.7634416,7.4983133 5.0379708,5.0379708 0 0 1 5.8393615,6.9997044 5.0379708,5.0379708 0 0 1 5.9624748,6.5113551 5.0379708,5.0379708 0 0 1 6.1348334,6.0394207 5.0379708,5.0379708 0 0 1 6.3543855,5.5859534 5.0379708,5.0379708 0 0 1 6.6170272,5.1550569 5.0379708,5.0379708 0 0 1 6.9227585,4.7549387 5.0379708,5.0379708 0 0 1 7.2654238,4.3855988 5.0379708,5.0379708 0 0 1 7.6450232,4.0531929 5.0379708,5.0379708 0 0 1 7.9999998,3.7987587 5.0379708,5.0379708 0 0 0 5.223795,2.9615883 Z" style="opacity:1"/>
        <path inkscape:connector-curvature="0" d="M 7.9999998,3.7987587 A 5.0379708,5.0379708 0 0 0 7.6450232,4.0531929 5.0379708,5.0379708 0 0 0 7.2654238,4.3855988 5.0379708,5.0379708 0 0 0 6.9227585,4.7549387 5.0379708,5.0379708 0 0 0 6.6170272,5.1550569 5.0379708,5.0379708 0 0 0 6.3543855,5.5859534 5.0379708,5.0379708 0 0 0 6.1348334,6.0394207 5.0379708,5.0379708 0 0 0 5.9624748,6.5113551 5.0379708,5.0379708 0 0 0 5.8393615,6.9997044 a 5.0379708,5.0379708 0 0 0 -0.07592,0.4986089 5.0379708,5.0379708 0 0 0 -0.024622,0.5027126 5.0379708,5.0379708 0 0 0 0.012312,0.3549768 5.0379708,5.0379708 0 0 0 0.059505,0.5006607 5.0379708,5.0379708 0 0 0 0.110802,0.4904013 5.0379708,5.0379708 0 0 0 0.1600474,0.4780899 5.0379708,5.0379708 0 0 0 0.2051887,0.4596224 5.0379708,5.0379708 0 0 0 0.2503304,0.437052 5.0379708,5.0379708 0 0 0 0.2934201,0.410378 5.0379708,5.0379708 0 0 0 0.3324058,0.377548 5.0379708,5.0379708 0 0 0 0.367288,0.344717 5.0379708,5.0379708 0 0 0 0.4021701,0.303679 5.0379708,5.0379708 0 0 0 0.069764,0.04309 5.0379708,5.0379708 0 0 0 2.261179,-4.2002108 5.0379708,5.0379708 0 0 0 -2.2632317,-4.2022673 z" style="opacity:0.3"/>
    </g>
</svg>
