<?xml version="1.0" encoding="UTF-8" standalone="no"?>
<svg xmlns:dc="http://purl.org/dc/elements/1.1/" xmlns:cc="http://creativecommons.org/ns#" xmlns:rdf="http://www.w3.org/1999/02/22-rdf-syntax-ns#" xmlns:svg="http://www.w3.org/2000/svg" xmlns="http://www.w3.org/2000/svg" xmlns:sodipodi="http://sodipodi.sourceforge.net/DTD/sodipodi-0.dtd" xmlns:inkscape="http://www.inkscape.org/namespaces/inkscape" id="svg1" width="16" height="16" version="1.1" sodipodi:docname="none-symbolic.svg" inkscape:version="0.92.4 (5da689c313, 2019-01-14)">
<metadata id="metadata9">
<rdf:RDF>
<cc:Work rdf:about="">
<dc:format>image/svg+xml</dc:format>
<dc:type rdf:resource="http://purl.org/dc/dcmitype/StillImage" />
</cc:Work>
</rdf:RDF>
</metadata>
<sodipodi:namedview pagecolor="#ffffff" bordercolor="#666666" borderopacity="1" objecttolerance="10" gridtolerance="10" guidetolerance="10" inkscape:pageopacity="0" inkscape:pageshadow="2" inkscape:window-width="1280" inkscape:window-height="960" id="namedview7" showgrid="false" inkscape:zoom="14.75" inkscape:cx="8.135593" inkscape:cy="8" inkscape:window-x="0" inkscape:window-y="27" inkscape:window-maximized="1" inkscape:current-layer="svg1" />
<defs id="defs3" />
<g id="none">
<rect height="16" id="rect9056-0" style="color:#000000;fill:none;stroke-width:0" width="16" x="0" y="0" />
<path style="fill:#000000;fill-rule:evenodd;stroke:none;fill-opacity:1;opacity:0.8095238" d="M 2.457032,1.83008 1.830078,2.45703 7.373047,8 1.830078,13.54101 2.457032,14.16992 8,8.62695 13.542969,14.16992 14.169922,13.54101 8.626953,8 14.169922,2.45703 13.542969,1.83008 8,7.37305 Z" id="rect7924" />
</g>
</svg>
